#433 - Yadz

owner = A59
controller = A59
add_core = A59
culture = corvurian
religion = regent_court

hre = no

base_tax = 7
base_production = 5
base_manpower = 5

trade_goods = cloth
center_of_trade = 1

capital = ""

is_city = yes







add_permanent_province_modifier = {
	name = half_elven_minority_coexisting_large
	duration = -1
}