namespace = ramsteel

#Lambs to the slaughter
country_event = {
	id = ramsteel.1
	title = ramsteel.1.t
	desc = ramsteel.1.d
	picture = FEAST_eventPicture
	
	
	is_triggered_only = yes
	
	
	trigger = {
		always = yes
	}
	
	option = { 
		name = ramsteel.1.a
		ai_chance = { factor = 50 }
		add_country_modifier = {
			name = ramsteel_slaughter_tax
			duration = -1
		}
	}
	option = { 
		name = ramsteel.1.b
		ai_chance = { factor = 50 }	
		add_country_modifier = {
			name = ramsteel_slaughter_unrest
			duration = -1
		}
	}
}


#Purchase Gelkalis Breed
country_event = {
	id = ramsteel.2
	title = ramsteel.2.t
	desc = ramsteel.2.d
	picture = MERCHANTS_TALKING_eventPicture
	
	
	is_triggered_only = yes
	
	
	trigger = {
		always = yes
	}
	
	immediate = {
		random_country = {
			limit = { owns = 665 }
			save_event_target_as = gelkalis_owner
		}
	}
	option = { 
		name = ramsteel.2.a
		add_treasury = -300
		event_target:gelkalis_owner = { add_treasury = 300 }
		add_country_modifier = {
			name = ramsteel_gelkalis_buffs
			duration = 3650
		}
	}
}

#Retooling ram corps
country_event = {
	id = ramsteel.3
	title = ramsteel.3.t
	desc = ramsteel.3.d
	picture = REFORM_eventPicture
	
	
	is_triggered_only = yes
	
	
	trigger = {
		always = yes
	}
	
	#CHAAAAAARGE
	option = { 
		name = ramsteel.3.a
		ai_chance = { 
			factor = 50 
			modifier = {
				factor = 2
				army_tradition = 50
			}
		}
		add_prestige = 10
		add_country_modifier = {
			name = ramsteel_retooling_buffs
			duration = 3650
		}
		set_country_flag = ramsteel_shock
	}
	#We must stay ahead of the times
	option = { 
		name = ramsteel.3.b
		ai_chance = { 
			factor = 50 
			modifier = {
				factor = 2
				current_age = age_of_absolutism
			}
		}
		add_prestige = -10
		add_army_tradition = -10
		add_country_modifier = {
			name = ramsteel_retooling_debuffs
			duration = 3650
		}
		set_country_flag = ramsteel_fire
	}
}

#Frozen Forge - send offer to them
country_event = {
	id = ramsteel.4
	title = ramsteel.4.t
	desc = ramsteel.4.d
	picture = ELECTION_REPUBLICAN_eventPicture
	
	
	is_triggered_only = yes
	
	
	trigger = {
		always = yes
	}
	
	option = {
		name = ramsteel.4.a
		I01 = {
			country_event = {
				id = ramsteel.5
				days = 25
				random = 10
			}
		}
	}
}

#Frozen Forge - Krakdhumvror receives
country_event = {
	id = ramsteel.5
	title = ramsteel.5.t
	desc = ramsteel.5.d
	picture = ELECTION_REPUBLICAN_eventPicture
	
	
	is_triggered_only = yes
	
	trigger = {
		always = yes
	}
	
	#Accepts
	option = { 
		name = ramsteel.5.a
		ai_chance = { 
			factor = 50
			modifier = {
				factor = 0
				ROOT = {
					army_size = FROM
				}
			}
			modifier = {
				factor = 0.75
				ROOT = {
					army_strength = {
						who = FROM
						value = 0.75
					}
				}
			}
			modifier = {
				factor = 2
				ROOT = {
					has_opinion = {
						who = FROM
						value = 150
					}
				}
			}
			modifier = {
				factor = 5
				ROOT = {
					has_opinion = {
						who = FROM
						value = 199
					}
				}
			}
			modifier = {
				factor = 2
				ruler_has_personality = entrepreneur_personality
			}
		}
		FROM = {
			country_event = {
				id = ramsteel.6
				days = 25
				random = 10
			}
		}
	}
	#Refuses
	option = { 
		name = ramsteel.5.b
		ai_chance = { 
			factor = 50 
			modifier = {
				factor  = 5
				ROOT = {
					any_owned_province = {
						area = vazhatun_area
					}
				}
			}
			modifier = {
				factor  = 2
				any_owned_province = {
					OR = {
						area = middle_logr_area
						area = upper_logr_area
						area = far_moitsa_area
					}
				}
			}
			modifier = {
				factor = 2
				ruler_has_personality = expansionist_personality
			}
		}
		FROM = {
			country_event = {
				id = ramsteel.7
				days = 25
				random = 10
			}
		}
	}
}

#Frozen Forge - Krakdhumvror accepts
country_event = {
	id = ramsteel.6
	title = ramsteel.6.t
	desc = ramsteel.6.d
	picture = ELECTION_REPUBLICAN_eventPicture
	
	
	is_triggered_only = yes
	
	
	trigger = {
		always = yes
	}
	
	option = {
		name = ramsteel.6.a
		ROOT = {
			add_historical_friend = FROM
		}
		FROM = {
			add_historical_friend = ROOT
		}
		add_country_modifier = {
			name = ramsteel_frozen_forge_trade_krakd
			duration = 18250
		}
		FROM = {
			add_country_modifier = {
				name = ramsteel_frozen_forge_trade_orlazam
				duration = 18250
			}
		}
	}
}

#Frozen Forge - Krakdhumvror rejects
country_event = {
	id = ramsteel.7
	title = ramsteel.7.t
	desc = ramsteel.7.d
	picture = ELECTION_REPUBLICAN_eventPicture
	
	
	is_triggered_only = yes
	
	
	trigger = {
		always = yes
	}
	
	option = { 
		name = ramsteel.7.a
		add_prestige = -10
	}
}

#Mecharam Prototype Start
country_event = {
	id = ramsteel.8
	title = ramsteel.8.t
	desc = ramsteel.8.d
	picture = INVENTION_eventPicture
	
	
	is_triggered_only = yes
	
	
	trigger = {
		always = yes
	}
	
	option = { 
		name = ramsteel.8.a
		country_event = {
			id = ramsteel.11
			days = 30
			random = 30
		}
	}
}

#Mecharam speeeeed or cost?
country_event = {
	id = ramsteel.9
	title = ramsteel.9.t
	desc = ramsteel.9.d
	picture = INVENTION_eventPicture
	
	
	is_triggered_only = yes
	
	
	trigger = {
		always = yes
	}

	immediate = {
		hidden_effect = {
			country_event = {
				id = ramsteel.10
				days = 365
			}
		}
	}
	#Speed
	option = { 
		name = ramsteel.9.a
		ai_chance = { factor = 50 }
		set_country_flag = ramsteel_mecharam_speed
	}
	#Cost
	option = { 
		name = ramsteel.9.b
		ai_chance = { factor = 50 }	
		set_country_flag = ramsteel_mecharam_cost
	}
}

#Mecharam fire or shock?
country_event = {
	id = ramsteel.10
	title = ramsteel.10.t
	desc = ramsteel.10.d
	picture = INVENTION_eventPicture
	
	
	is_triggered_only = yes
	
	
	trigger = {
		always = yes
	}
	
	immediate = {
		hidden_effect = {
			country_event = {
				id = ramsteel.12
				days = 365
			}
		}
	}
	
	#Fire
	option = { 
		name = ramsteel.10.a
		ai_chance = { factor = 50 }
		set_country_flag = ramsteel_mecharam_fire
	}
	#Shock
	option = { 
		name = ramsteel.10.b
		ai_chance = { factor = 50 }	
		set_country_flag = ramsteel_mecharam_shock
	}
}

#Mecharam flanking or ratio?
country_event = {
	id = ramsteel.11
	title = ramsteel.11.t
	desc = ramsteel.11.d
	picture = INVENTION_eventPicture
	
	
	is_triggered_only = yes
	
	
	trigger = {
		always = yes
	}
	
	immediate = {
		hidden_effect = {
			country_event = {
				id = ramsteel.9
				days = 365
			}
		}
	}
	
	#Flanking
	option = { 
		name = ramsteel.11.a
		ai_chance = { factor = 50 }
		set_country_flag = ramsteel_mecharam_flanking
	}
	#Ratio
	option = {
		name = ramsteel.11.b
		ai_chance = { factor = 50 }	
		set_country_flag = ramsteel_mecharam_ratio
	}
}

#Mecharam finished!
country_event = {
	id = ramsteel.12
	title = ramsteel.12.t
	desc = ramsteel.12.d
	picture = INVENTION_eventPicture
	
	
	is_triggered_only = yes
	
	
	trigger = {
		always = yes
	}
	
	option = { 
		name = ramsteel.12.a
		if = {
			limit = {
				has_country_flag = ramsteel_mecharam_flanking
				has_country_flag = ramsteel_mecharam_fire
				has_country_flag = ramsteel_mecharam_speed
			}
			add_country_modifier = {
				name = ramsteel_mecharam_1
				duration = -1
			}
		}
		else_if = {
			limit = {
				has_country_flag = ramsteel_mecharam_flanking
				has_country_flag = ramsteel_mecharam_fire
				has_country_flag = ramsteel_mecharam_cost
			}
			add_country_modifier = {
				name = ramsteel_mecharam_2
				duration = -1
			}
		}
		else_if = {
			limit = {
				has_country_flag = ramsteel_mecharam_flanking
				has_country_flag = ramsteel_mecharam_shock
				has_country_flag = ramsteel_mecharam_speed
			}
			add_country_modifier = {
				name = ramsteel_mecharam_3
				duration = -1
			}
		}
		else_if = {
			limit = {
				has_country_flag = ramsteel_mecharam_flanking
				has_country_flag = ramsteel_mecharam_shock
				has_country_flag = ramsteel_mecharam_cost
			}
			add_country_modifier = {
				name = ramsteel_mecharam_4
				duration = -1
			}
		}
		else_if = {
			limit = {
				has_country_flag = ramsteel_mecharam_ratio
				has_country_flag = ramsteel_mecharam_fire
				has_country_flag = ramsteel_mecharam_speed
			}
			add_country_modifier = {
				name = ramsteel_mecharam_5
				duration = -1
			}
		}
		else_if = {
			limit = {
				has_country_flag = ramsteel_mecharam_ratio
				has_country_flag = ramsteel_mecharam_fire
				has_country_flag = ramsteel_mecharam_cost
			}
			add_country_modifier = {
				name = ramsteel_mecharam_6
				duration = -1
			}
		}
		else_if = {
			limit = {
				has_country_flag = ramsteel_mecharam_ratio
				has_country_flag = ramsteel_mecharam_shock
				has_country_flag = ramsteel_mecharam_speed
			}
			add_country_modifier = {
				name = ramsteel_mecharam_7
				duration = -1
			}
		}
		else_if = {
			limit = {
				has_country_flag = ramsteel_mecharam_ratio
				has_country_flag = ramsteel_mecharam_shock
				has_country_flag = ramsteel_mecharam_cost
			}
			add_country_modifier = {
				name = ramsteel_mecharam_8
				duration = -1
			}
		}
		clr_country_flag = ramsteel_mecharam_flanking
		clr_country_flag = ramsteel_mecharam_ratio
		clr_country_flag = ramsteel_mecharam_fire
		clr_country_flag = ramsteel_mecharam_shock
		clr_country_flag = ramsteel_mecharam_speed
		clr_country_flag = ramsteel_mecharam_cost
		remove_country_modifier = ramsteel_fire_3
		remove_country_modifier = ramsteel_shock_3
	}
}

#Earlier repair
country_event = {
	id = ramsteel.13
	title = ramsteel.13.t
	desc = ramsteel.13.d
	picture = CITY_DEVELOPMENT_eventPicture
	
	
	is_triggered_only = yes
	
	
	trigger = {
		always = yes
	}
	
	immediate = {
		hidden_effect = { country_event = { id = diggy.44 days = 1825 } }
		hidden_effect = { set_global_flag = irrigation_east }
	}
	option = { 
		name = ramsteel.13.a
		add_treasury = -500
		add_adm_power = -200
	}
}

#Ramsteel secrets expedition start
country_event = {
	id = ramsteel.14
	title = ramsteel.14.t
	desc = ramsteel.14.d
	picture = EXPLORERS_eventPicture
	
	
	is_triggered_only = yes
	
	
	trigger = {
		always = yes
	}
	
	#Miners
	option = { 
		name = ramsteel.14.a
		ai_chance = { factor = 50 }
		add_treasury = -300
		add_manpower = -2.5
		hidden_effect = {
			if = {
				limit = { has_country_flag = ramsteel_cave_collapse }
				country_event = { id = ramsteel.15 days = 90 }
			}
			else = {
				country_event = { id = ramsteel.16 days = 90 }
			}
		}
	}
	#Rangers
	option = { 
		name = ramsteel.14.b
		ai_chance = { factor = 50 }	
		add_treasury = -300
		add_manpower = -2.5
		hidden_effect = {
			if = {
				limit = { has_country_flag = ramsteel_goblin_ambush }
				country_event = { id = ramsteel.15 days = 90 }
			}
			else = {
				country_event = { id = ramsteel.16 days = 90 }
			}
		}
	}
	#Both
	option = { 
		name = ramsteel.14.c
		ai_chance = { factor = 1 }	
		add_treasury = -300
		add_manpower = -5
		set_country_flag = ramsteel_expedition_both
		hidden_effect = {
			country_event = { id = ramsteel.15 days = 90 }
		}
	}
}

#Expedition obstacle #1 SUCCESS
country_event = {
	id = ramsteel.15
	title = ramsteel.15.t
	desc = ramsteel.15.d
	picture = EXPLORERS_eventPicture
	
	
	is_triggered_only = yes
	
	trigger = {
		always = yes
	}

	#Noice
	option = { 
		name = ramsteel.15.a
		ai_chance = { factor = 50 }	
		add_prestige = 10
		hidden_effect = {
			country_event = { id = ramsteel.18 days = 90 }
		}
	}
}

#Expedition obstacle #1 FAIL
country_event = {
	id = ramsteel.16
	title = ramsteel.16.t
	desc = ramsteel.16.desc
	picture = EXPLORERS_eventPicture
	
	
	is_triggered_only = yes
	
	
	trigger = {
		always = yes
	}
	immediate = {
		hidden_effect = {
			country_event = { id = ramsteel.17 days = 90 }
			set_country_flag = ramsteel_obstacle_1_fail	
		}
	}
	#Ask mages for help
	option = { 
		name = ramsteel.16.a
		trigger = { has_estate = estate_mages }
		ai_chance = { factor = 50 }
		add_estate_influence_modifier = {
            estate = estate_mages
            desc = ramsteel_asked_estate_help
            duration = 7300
            influence = 5
		}
		add_prestige = -10
		hidden_effect = {
			if = {
				limit = { has_country_flag = ramsteel_ancient_curse }
				set_country_flag = ramsteel_success
			}
		}
	}
	#Ask nobility for help
	option = { 
		name = ramsteel.16.b
		trigger = { has_estate = estate_nobles }
		ai_chance = { factor = 50 }	
		add_estate_influence_modifier = {
            estate = estate_nobles
            desc = ramsteel_asked_estate_help
            duration = 7300
            influence = 5
		}
		add_legitimacy = -10
		hidden_effect = {
			if = {
				limit = { has_country_flag = ramsteel_cave_collapse }
				set_country_flag = ramsteel_success
			}
		}
	}
	#Ask adventurers for help
	option = { 
		name = ramsteel.16.c
		trigger = { has_estate = estate_adventurers }
		ai_chance = { factor = 50 }	
		add_estate_influence_modifier = {
			estate = estate_adventurers
            desc = ramsteel_asked_estate_help
            duration = 7300
            influence = 5
		}
		add_years_of_income = -0.25
		hidden_effect = {
			if = {
				limit = { has_country_flag = ramsteel_goblin_ambush }
				set_country_flag = ramsteel_success
			}
		}
	}
	#Use crown resources
	option = { 
		name = ramsteel.16.d
		ai_chance = { factor = 50 }	
		add_years_of_income = -0.33
		hidden_effect = { 
			set_country_flag = ramsteel_success
		}
	}
	#They will figure it out
	option = { 
		name = ramsteel.16.e
		ai_chance = { factor = 50 }	
		set_country_flag = ramsteel_left_alone
		add_prestige = -15
	}
}

#Expedition help success/fail
country_event = {
	id = ramsteel.17
	title = ramsteel.17.t
	desc = {
		trigger = { has_country_flag = ramsteel_success }
		desc = 	ramsteel.17.d.1
	}
	desc = {
		trigger = { }
		desc = 	ramsteel.17.d.2
	}

	picture = EXPLORERS_eventPicture
	is_triggered_only = yes
	
	trigger = {
		always = yes
	}
	immediate = {
		hidden_effect = {
			country_event = { id = ramsteel.18 days = 90 }
		}
	}
	#Great!
	option = { 
		trigger = { has_country_flag = ramsteel_success }
		name = ramsteel.17.a
		ai_chance = { factor = 50 }
		add_prestige = 5
	}
	#Oh well
	option = { 
		name = ramsteel.17.b
		trigger = {
			NOT = { has_country_flag = ramsteel_success }
		}
		ai_chance = { factor = 50 }
		set_country_flag = ramsteel_obstacle_1_fail_again
	}
}

#Expedition branching path
country_event = {
	id = ramsteel.18
	title = ramsteel.18.t
	desc = ramsteel.18.d
	picture = EXPLORERS_eventPicture

	is_triggered_only = yes
	
	trigger = {
		always = yes
	}
	
	#Stable + Forge
	option = { 
		name = ramsteel.18.a
		ai_chance = { factor = 50 }	
		hidden_effect = {
			country_event = { id = ramsteel.19 days = 90 random = 20 }
		}
	}
	#Vault/Library
	option = { 
		name = ramsteel.18.b
		ai_chance = { factor = 50 }	
		hidden_effect = {
			country_event = { id = ramsteel.20 days = 90 random = 20 }
		}
	}
}

#Stable + Forge
country_event = {
	id = ramsteel.19
	title = ramsteel.19.t
	desc = ramsteel.19.d
	picture = EXPLORERS_eventPicture
	
	is_triggered_only = yes
	
	trigger = {
		always = yes
	}
	
	#Noice
	option = { 
		name = ramsteel.19.a
		4130 = {
			add_province_modifier = {
				name = ramsteel_expedition_forge
				duration = -1
			}
		}
		hidden_effect = {
			if = {
				limit = { has_country_flag = ramsteel_expedition_both }
				country_event = { id = ramsteel.21 days = 60 random = 30 }
			}
			else = {
				country_event = { id = ramsteel.99 days = 60 random = 30 }
			}
		}
		define_general = {
			shock = 4
			fire = 2
			manuever = 1
			siege = 2
		}
	}
}

#Vault/Library
country_event = {
	id = ramsteel.20
	title = ramsteel.20.t
	desc = ramsteel.20.d
	picture = EXPLORERS_eventPicture
	
	is_triggered_only = yes
	
	trigger = {
		always = yes
	}
	
	#Noice
	option = { 
		name = ramsteel.20.a
		add_years_of_income = 0.5
		add_country_modifier = {
			name = ramsteel_expedition_vault
			duration = 7300
		}
		hidden_effect = {
			if = {
				limit = { has_country_flag = ramsteel_expedition_both }
				country_event = { id = ramsteel.21 days = 60 random = 30 }
			}
			else = {
				country_event = { id = ramsteel.99 days = 60 random = 30 }
			}
		}
	}
}

#Miners and rangers fight over the spoils
country_event = {
	id = ramsteel.21
	title = ramsteel.21.t
	desc = ramsteel.21.d
	picture = BATTLE_eventPicture
	
	
	is_triggered_only = yes
	
	trigger = {
		always = yes
	}

	immediate = {
		hidden_effect = { country_event = { id = ramsteel.99 days = 60 } }
	}
	
	#Just pay them both off
	option = { 
		name = ramsteel.21.a
		add_years_of_income = -0.50
	}
	#Side with the rangers
	option = { 
		name = ramsteel.21.b
		add_years_of_income = -0.25
		custom_tooltip = ramsteel_miners_angered_effect
		hidden_effect = {
			every_owned_province = {
				limit = { OR = { trade_goods = wool trade_goods = livestock  } }
				add_province_modifier = {
					name = ramsteel_expedition_party_angered
					duration = 3650
				}
			}
		}
	}
	#Side with the miners
	option = { 
		name = ramsteel.21.c
		add_years_of_income = -0.25
		custom_tooltip = ramsteel_rangers_angered_effect
		hidden_effect = {
			every_owned_province = {
				limit = { OR = { trade_goods = iron trade_goods = copper trade_goods = mithril } }
				add_province_modifier = {
					name = ramsteel_expedition_party_angered
					duration = 3650
				}
			}
		}
	}
}

#Expedition end
country_event = {
	id = ramsteel.99
	title = ramsteel.99.t
	desc = ramsteel.99.d
	picture = TRADEGOODS_eventPicture
	
	
	is_triggered_only = yes
	
	
	trigger = {
		always = yes
	}
	after = {
		hidden_effect = {
			clr_country_flag = ramsteel_goblin_ambush
			clr_country_flag = ramsteel_ancient_curse
			clr_country_flag = ramsteel_cave_collapse
			clr_country_flag = ramsteel_left_alone
			clr_country_flag = ramsteel_obstacle_1_fail
			clr_country_flag = ramsteel_obstacle_1_fail_again
			clr_country_flag = ramsteel_success
			clr_country_flag = ramsteel_on_expedition
			clr_country_flag = ramsteel_expedition_both
		}
	}
	option = { 
		name = ramsteel.99.a
		trigger = {
			has_country_flag = ramsteel_left_alone
		}
		add_manpower = 1
		add_prestige = 10
	}
	option = { 
		name = ramsteel.99.b
		trigger = {
			has_country_flag = ramsteel_obstacle_1_fail_again
			NOT = { has_country_flag = ramsteel_left_alone }
		}
		add_manpower = 2
		add_prestige = 10
	}
	option = { 
		name = ramsteel.99.c
		trigger = {
			has_country_flag = ramsteel_obstacle_1_fail_again
			NOT = { has_country_flag = ramsteel_left_alone }
			NOT = { has_country_flag = ramsteel_obstacle_1_fail_again }
		}
		add_manpower = 3
		add_prestige = 10
	}
	option = { 
		name = ramsteel.99.e
		trigger = {
			NOT = { has_country_flag = ramsteel_obstacle_1_fail_again }
			NOT = { has_country_flag = ramsteel_left_alone }
			NOT = { has_country_flag = ramsteel_obstacle_1_fail_again }
		}
		add_manpower = 5
		add_prestige = 10
	}
}


#Randomize Obstacle Event
country_event = {
	id = ramsteel.69
	title = ramsteel.69.t
	desc = ramsteel.69.d
	picture = EXPLORERS_eventPicture
	
	is_triggered_only = yes
	hidden = yes
	
	trigger = {
		always = yes
	}
	
	#Nice
	option = { 
		name = ramsteel.69.a
		ai_chance = { factor = 50 }
		random_list = {
			1 = {
				set_country_flag = ramsteel_goblin_ambush
			}
			1 = {
				set_country_flag = ramsteel_ancient_curse
			}
			1 = {
				set_country_flag = ramsteel_cave_collapse
			}
		}
	}
}